-114/Transístores bem feito/ensaio2 - anal/F0012CH2.CSV

Record Length,2.500000e+03,,  -0.000091000000,   4.84000,
Sample Interval,1.000000e-07,,  -0.000090900000,   4.84000,
Trigger Point,9.100000000000e+02,,  -0.000090800000,   4.88000,
,,,  -0.000090700000,   4.84000,
,,,  -0.000090600000,   4.84000,
,,,  -0.000090500000,   4.84000,
Source,CH2,,  -0.000090400000,   4.84000,
Vertical Units,V,,  -0.000090300000,   4.88000,
Vertical Scale,1.000000e+00,,  -0.000090200000,   4.84000,
Vertical Offset,-2.320000e+00,,  -0.000090100000,   4.88000,
Horizontal Units,s,,  -0.000090000000,   4.88000,
Horizontal Scale,2.500000e-05,,  -0.000089900000,   4.88000,
Pt Fmt,Y,,  -0.000089800000,   4.84000,
Yzero,0.000000e+00,,  -0.000089700000,   4.88000,
Probe Atten,1.000000e+00,,  -0.000089600000,   4.88000,
Model Number,TBS1072B-EDU,,  -0.000089500000,   4.92000,
Serial Number,C015811,,  -0.000089400000,   4.88000,
Firmware Version,FV:v4.06,,  -0.000089300000,   4.88000,
,,,-00.000089200000,   4.84000,
,,,-00.000089100000,   4.88000,
,,,-00.000089000000,   4.88000,
,,,-00.000088900000,   4.92000,
,,,-00.000088800000,   4.88000,
,,,-00.000088700000,   4.88000,
,,,-00.000088600000,   4.88000,
,,,-00.000088500000,   4.92000,
,,,-00.000088400000,   4.88000,
,,,-00.000088300000,   4.84000,
,,,-00.000088200000,   4.88000,
,,,-00.000088100000,   4.84000,
,,,-00.000088000000,   4.88000,
,,,-00.000087900000,   4.88000,
,,,-00.000087800000,   4.84000,
,,,-00.000087700000,   4.88000,
,,,-00.000087600000,   4.84000,
,,,-00.000087500000,   4.92000,
,,,-00.000087400000,   4.80000,
,,,-00.000087300000,   4.84000,
,,,-00.000087200000,   4.84000,
,,,-00.000087100000,   4.84000,
,,,-00.000087000000,   4.84000,
,,,-00.000086900000,   4.84000,
,,,-00.000086800000,   4.88000,
,,,-00.000086700000,   4.84000,
,,,-00.000086600000,   4.88000,
,,,-00.000086500000,   4.80000,
,,,-00.000086400000,   4.88000,
,,,-00.000086300000,   4.80000,
,,,-00.000086200000,   4.88000,
,,,-00.000086100000,   4.84000,
,,,-00.000086000000,   4.84000,
,,,-00.000085900000,   4.88000,
,,,-00.000085800000,   4.84000,
,,,-00.000085700000,   4.84000,
,,,-00.000085600000,   4.84000,
,,,-00.000085500000,   4.88000,
,,,-00.000085400000,   4.88000,
,,,-00.000085300000,   4.88000,
,,,-00.000085200000,   4.80000,
,,,-00.000085100000,   4.88000,
,,,-00.000085000000,   4.88000,
,,,-00.000084900000,   4.88000,
,,,-00.000084800000,   4.84000,
,,,-00.000084700000,   4.88000,
,,,-00.000084600000,   4.88000,
,,,-00.000084500000,   4.88000,
,,,-00.000084400000,   4.88000,
,,,-00.000084300000,   4.84000,
,,,-00.000084200000,   4.88000,
,,,-00.000084100000,   4.84000,
,,,-00.000084000000,   4.84000,
,,,-00.000083900000,   4.88000,
,,,-00.000083800000,   4.92000,
,,,-00.000083700000,   4.88000,
,,,-00.000083600000,   4.84000,
,,,-00.000083500000,   4.88000,
,,,-00.000083400000,   4.84000,
,,,-00.000083300000,   4.88000,
,,,-00.000083200000,   4.88000,
,,,-00.000083100000,   4.88000,
,,,-00.000083000000,   4.84000,
,,,-00.000082900000,   4.88000,
,,,-00.000082800000,   4.84000,
,,,-00.000082700000,   4.84000,
,,,-00.000082600000,   4.84000,
,,,-00.000082500000,   4.80000,
,,,-00.000082400000,   4.84000,
,,,-00.000082300000,   4.84000,
,,,-00.000082200000,   4.80000,
,,,-00.000082100000,   4.80000,
,,,-00.000082000000,   4.88000,
,,,-00.000081900000,   4.84000,
,,,-00.000081800000,   4.84000,
,,,-00.000081700000,   4.84000,
,,,-00.000081600000,   4.88000,
,,,-00.000081500000,   4.88000,
,,,-00.000081400000,   4.88000,
,,,-00.000081300000,   4.88000,
,,,-00.000081200000,   4.88000,
,,,-00.000081100000,   4.84000,
,,,-00.000081000000,   4.84000,
,,,-00.000080900000,   4.88000,
,,,-00.000080800000,   4.84000,
,,,-00.000080700000,   4.88000,
,,,-00.000080600000,   4.88000,
,,,-00.000080500000,   4.88000,
,,,-00.000080400000,   4.88000,
,,,-00.000080300000,   4.84000,
,,,-00.000080200000,   4.88000,
,,,-00.000080100000,   4.88000,
,,,-00.000080000000,   4.88000,
,,,-00.000079900000,   4.80000,
,,,-00.000079800000,   4.84000,
,,,-00.000079700000,   4.84000,
,,,-00.000079600000,   4.88000,
,,,-00.000079500000,   4.84000,
,,,-00.000079400000,   4.88000,
,,,-00.000079300000,   4.84000,
,,,-00.000079200000,   4.88000,
,,,-00.000079100000,   4.88000,
,,,-00.000079000000,   4.88000,
,,,-00.000078900000,   4.84000,
,,,-00.000078800000,   4.88000,
,,,-00.000078700000,   4.88000,
,,,-00.000078600000,   4.88000,
,,,-00.000078500000,   4.88000,
,,,-00.000078400000,   4.84000,
,,,-00.000078300000,   4.88000,
,,,-00.000078200000,   4.84000,
,,,-00.000078100000,   4.88000,
,,,-00.000078000000,   4.88000,
,,,-00.000077900000,   4.88000,
,,,-00.000077800000,   4.88000,
,,,-00.000077700000,   4.84000,
,,,-00.000077600000,   4.84000,
,,,-00.000077500000,   4.84000,
,,,-00.000077400000,   4.84000,
,,,-00.000077300000,   4.88000,
,,,-00.000077200000,   4.84000,
,,,-00.000077100000,   4.84000,
,,,-00.000077000000,   4.84000,
,,,-00.000076900000,   4.88000,
,,,-00.000076800000,   4.80000,
,,,-00.000076700000,   4.88000,
,,,-00.000076600000,   4.76000,
,,,-00.000076500000,   4.88000,
,,,-00.000076400000,   4.80000,
,,,-00.000076300000,   4.88000,
,,,-00.000076200000,   4.84000,
,,,-00.000076100000,   4.80000,
,,,-00.000076000000,   4.84000,
,,,-00.000075900000,   4.88000,
,,,-00.000075800000,   4.84000,
,,,-00.000075700000,   4.84000,
,,,-00.000075600000,   4.88000,
,,,-00.000075500000,   4.84000,
,,,-00.000075400000,   4.80000,
,,,-00.000075300000,   4.84000,
,,,-00.000075200000,   4.88000,
,,,-00.000075100000,   4.84000,
,,,-00.000075000000,   4.84000,
,,,-00.000074900000,   4.88000,
,,,-00.000074800000,   4.80000,
,,,-00.000074700000,   4.84000,
,,,-00.000074600000,   4.88000,
,,,-00.000074500000,   4.88000,
,,,-00.000074400000,   4.84000,
,,,-00.000074300000,   4.80000,
,,,-00.000074200000,   4.84000,
,,,-00.000074100000,   4.88000,
,,,-00.000074000000,   4.84000,
,,,-00.000073900000,   4.92000,
,,,-00.000073800000,   4.88000,
,,,-00.000073700000,   4.84000,
,,,-00.000073600000,   4.88000,
,,,-00.000073500000,   4.84000,
,,,-00.000073400000,   4.88000,
,,,-00.000073300000,   4.80000,
,,,-00.000073200000,   4.88000,
,,,-00.000073100000,   4.84000,
,,,-00.000073000000,   4.88000,
,,,-00.000072900000,   4.80000,
,,,-00.000072800000,   4.88000,
,,,-00.000072700000,   4.84000,
,,,-00.000072600000,   4.84000,
,,,-00.000072500000,   4.88000,
,,,-00.000072400000,   4.84000,
,,,-00.000072300000,   4.80000,
,,,-00.000072200000,   4.80000,
,,,-00.000072100000,   4.84000,
,,,-00.000072000000,   4.84000,
,,,-00.000071900000,   4.84000,
,,,-00.000071800000,   4.84000,
,,,-00.000071700000,   4.84000,
,,,-00.000071600000,   4.84000,
,,,-00.000071500000,   4.88000,
,,,-00.000071400000,   4.88000,
,,,-00.000071300000,   4.92000,
,,,-00.000071200000,   4.84000,
,,,-00.000071100000,   4.80000,
,,,-00.000071000000,   4.84000,
,,,-00.000070900000,   4.84000,
,,,-00.000070800000,   4.88000,
,,,-00.000070700000,   4.84000,
,,,-00.000070600000,   4.84000,
,,,-00.000070500000,   4.88000,
,,,-00.000070400000,   4.84000,
,,,-00.000070300000,   4.88000,
,,,-00.000070200000,   4.84000,
,,,-00.000070100000,   4.88000,
,,,-00.000070000000,   4.80000,
,,,-00.000069900000,   4.88000,
,,,-00.000069800000,   4.84000,
,,,-00.000069700000,   4.88000,
,,,-00.000069600000,   4.84000,
,,,-00.000069500000,   4.88000,
,,,-00.000069400000,   4.80000,
,,,-00.000069300000,   4.88000,
,,,-00.000069200000,   4.88000,
,,,-00.000069100000,   4.88000,
,,,-00.000069000000,   4.84000,
,,,-00.000068900000,   4.88000,
,,,-00.000068800000,   4.88000,
,,,-00.000068700000,   4.88000,
,,,-00.000068600000,   4.88000,
,,,-00.000068500000,   4.84000,
,,,-00.000068400000,   4.88000,
,,,-00.000068300000,   4.84000,
,,,-00.000068200000,   4.84000,
,,,-00.000068100000,   4.80000,
,,,-00.000068000000,   4.84000,
,,,-00.000067900000,   4.88000,
,,,-00.000067800000,   4.84000,
,,,-00.000067700000,   4.84000,
,,,-00.000067600000,   4.80000,
,,,-00.000067500000,   4.84000,
,,,-00.000067400000,   4.80000,
,,,-00.000067300000,   4.80000,
,,,-00.000067200000,   4.84000,
,,,-00.000067100000,   4.80000,
,,,-00.000067000000,   4.84000,
,,,-00.000066900000,   4.80000,
,,,-00.000066800000,   4.84000,
,,,-00.000066700000,   4.76000,
,,,-00.000066600000,   4.88000,
,,,-00.000066500000,   4.80000,
,,,-00.000066400000,   4.84000,
,,,-00.000066300000,   4.76000,
,,,-00.000066200000,   4.84000,
,,,-00.000066100000,   4.84000,
,,,-00.000066000000,   4.80000,
,,,-00.000065900000,   4.80000,
,,,-00.000065800000,   4.84000,
,,,-00.000065700000,   4.80000,
,,,-00.000065600000,   4.80000,
,,,-00.000065500000,   4.80000,
,,,-00.000065400000,   4.80000,
,,,-00.000065300000,   4.84000,
,,,-00.000065200000,   4.84000,
,,,-00.000065100000,   4.88000,
,,,-00.000065000000,   4.80000,
,,,-00.000064900000,   4.84000,
,,,-00.000064800000,   4.80000,
,,,-00.000064700000,   4.88000,
,,,-00.000064600000,   4.84000,
,,,-00.000064500000,   4.76000,
,,,-00.000064400000,   4.84000,
,,,-00.000064300000,   4.80000,
,,,-00.000064200000,   4.84000,
,,,-00.000064100000,   4.84000,
,,,-00.000064000000,   4.80000,
,,,-00.000063900000,   4.84000,
,,,-00.000063800000,   4.80000,
,,,-00.000063700000,   4.88000,
,,,-00.000063600000,   4.80000,
,,,-00.000063500000,   4.88000,
,,,-00.000063400000,   4.84000,
,,,-00.000063300000,   4.80000,
,,,-00.000063200000,   4.84000,
,,,-00.000063100000,   4.84000,
,,,-00.000063000000,   4.80000,
,,,-00.000062900000,   4.84000,
,,,-00.000062800000,   4.80000,
,,,-00.000062700000,   4.80000,
,,,-00.000062600000,   4.84000,
,,,-00.000062500000,   4.76000,
,,,-00.000062400000,   4.76000,
,,,-00.000062300000,   4.80000,
,,,-00.000062200000,   4.84000,
,,,-00.000062100000,   4.84000,
,,,-00.000062000000,   4.76000,
,,,-00.000061900000,   4.84000,
,,,-00.000061800000,   4.84000,
,,,-00.000061700000,   4.80000,
,,,-00.000061600000,   4.84000,
,,,-00.000061500000,   4.88000,
,,,-00.000061400000,   4.84000,
,,,-00.000061300000,   4.80000,
,,,-00.000061200000,   4.80000,
,,,-00.000061100000,   4.76000,
,,,-00.000061000000,   4.80000,
,,,-00.000060900000,   4.84000,
,,,-00.000060800000,   4.80000,
,,,-00.000060700000,   4.80000,
,,,-00.000060600000,   4.76000,
,,,-00.000060500000,   4.80000,
,,,-00.000060400000,   4.80000,
,,,-00.000060300000,   4.80000,
,,,-00.000060200000,   4.84000,
,,,-00.000060100000,   4.76000,
,,,-00.000060000000,   4.84000,
,,,-00.000059900000,   4.80000,
,,,-00.000059800000,   4.80000,
,,,-00.000059700000,   4.76000,
,,,-00.000059600000,   4.80000,
,,,-00.000059500000,   4.72000,
,,,-00.000059400000,   4.80000,
,,,-00.000059300000,   4.76000,
,,,-00.000059200000,   4.84000,
,,,-00.000059100000,   4.80000,
,,,-00.000059000000,   4.80000,
,,,-00.000058900000,   4.76000,
,,,-00.000058800000,   4.84000,
,,,-00.000058700000,   4.80000,
,,,-00.000058600000,   4.76000,
,,,-00.000058500000,   4.80000,
,,,-00.000058400000,   4.72000,
,,,-00.000058300000,   4.76000,
,,,-00.000058200000,   4.80000,
,,,-00.000058100000,   4.76000,
,,,-00.000058000000,   4.80000,
,,,-00.000057900000,   4.76000,
,,,-00.000057800000,   4.76000,
,,,-00.000057700000,   4.68000,
,,,-00.000057600000,   4.72000,
,,,-00.000057500000,   4.72000,
,,,-00.000057400000,   4.72000,
,,,-00.000057300000,   4.72000,
,,,-00.000057200000,   4.68000,
,,,-00.000057100000,   4.76000,
,,,-00.000057000000,   4.72000,
,,,-00.000056900000,   4.72000,
,,,-00.000056800000,   4.68000,
,,,-00.000056700000,   4.76000,
,,,-00.000056600000,   4.72000,
,,,-00.000056500000,   4.76000,
,,,-00.000056400000,   4.68000,
,,,-00.000056300000,   4.68000,
,,,-00.000056200000,   4.68000,
,,,-00.000056100000,   4.72000,
,,,-00.000056000000,   4.68000,
,,,-00.000055900000,   4.68000,
,,,-00.000055800000,   4.68000,
,,,-00.000055700000,   4.72000,
,,,-00.000055600000,   4.68000,
,,,-00.000055500000,   4.68000,
,,,-00.000055400000,   4.68000,
,,,-00.000055300000,   4.68000,
,,,-00.000055200000,   4.68000,
,,,-00.000055100000,   4.68000,
,,,-00.000055000000,   4.72000,
,,,-00.000054900000,   4.68000,
,,,-00.000054800000,   4.72000,
,,,-00.000054700000,   4.72000,
,,,-00.000054600000,   4.64000,
,,,-00.000054500000,   4.64000,
,,,-00.000054400000,   4.68000,
,,,-00.000054300000,   4.68000,
,,,-00.000054200000,   4.68000,
,,,-00.000054100000,   4.68000,
,,,-00.000054000000,   4.68000,
,,,-00.000053900000,   4.60000,
,,,-00.000053800000,   4.68000,
,,,-00.000053700000,   4.64000,
,,,-00.000053600000,   4.64000,
,,,-00.000053500000,   4.64000,
,,,-00.000053400000,   4.68000,
,,,-00.000053300000,   4.60000,
,,,-00.000053200000,   4.68000,
,,,-00.000053100000,   4.64000,
,,,-00.000053000000,   4.68000,
,,,-00.000052900000,   4.56000,
,,,-00.000052800000,   4.60000,
,,,-00.000052700000,   4.64000,
,,,-00.000052600000,   4.60000,
,,,-00.000052500000,   4.60000,
,,,-00.000052400000,   4.56000,
,,,-00.000052300000,   4.60000,
,,,-00.000052200000,   4.56000,
,,,-00.000052100000,   4.56000,
,,,-00.000052000000,   4.60000,
,,,-00.000051900000,   4.56000,
,,,-00.000051800000,   4.56000,
,,,-00.000051700000,   4.64000,
,,,-00.000051600000,   4.60000,
,,,-00.000051500000,   4.56000,
,,,-00.000051400000,   4.56000,
,,,-00.000051300000,   4.52000,
,,,-00.000051200000,   4.56000,
,,,-00.000051100000,   4.60000,
,,,-00.000051000000,   4.56000,
,,,-00.000050900000,   4.52000,
,,,-00.000050800000,   4.52000,
,,,-00.000050700000,   4.56000,
,,,-00.000050600000,   4.52000,
,,,-00.000050500000,   4.56000,
,,,-00.000050400000,   4.52000,
,,,-00.000050300000,   4.52000,
,,,-00.000050200000,   4.48000,
,,,-00.000050100000,   4.56000,
,,,-00.000050000000,   4.48000,
,,,-00.000049900000,   4.52000,
,,,-00.000049800000,   4.48000,
,,,-00.000049700000,   4.52000,
,,,-00.000049600000,   4.48000,
,,,-00.000049500000,   4.52000,
,,,-00.000049400000,   4.44000,
,,,-00.000049300000,   4.48000,
,,,-00.000049200000,   4.48000,
,,,-00.000049100000,   4.52000,
,,,-00.000049000000,   4.52000,
,,,-00.000048900000,   4.48000,
,,,-00.000048800000,   4.48000,
,,,-00.000048700000,   4.44000,
,,,-00.000048600000,   4.44000,
,,,-00.000048500000,   4.44000,
,,,-00.000048400000,   4.48000,
,,,-00.000048300000,   4.44000,
,,,-00.000048200000,   4.44000,
,,,-00.000048100000,   4.44000,
,,,-00.000048000000,   4.36000,
,,,-00.000047900000,   4.40000,
,,,-00.000047800000,   4.36000,
,,,-00.000047700000,   4.44000,
,,,-00.000047600000,   4.40000,
,,,-00.000047500000,   4.36000,
,,,-00.000047400000,   4.36000,
,,,-00.000047300000,   4.32000,
,,,-00.000047200000,   4.36000,
,,,-00.000047100000,   4.36000,
,,,-00.000047000000,   4.40000,
,,,-00.000046900000,   4.32000,
,,,-00.000046800000,   4.40000,
,,,-00.000046700000,   4.32000,
,,,-00.000046600000,   4.40000,
,,,-00.000046500000,   4.28000,
,,,-00.000046400000,   4.36000,
,,,-00.000046300000,   4.32000,
,,,-00.000046200000,   4.36000,
,,,-00.000046100000,   4.28000,
,,,-00.000046000000,   4.32000,
,,,-00.000045900000,   4.32000,
,,,-00.000045800000,   4.28000,
,,,-00.000045700000,   4.28000,
,,,-00.000045600000,   4.28000,
,,,-00.000045500000,   4.28000,
,,,-00.000045400000,   4.28000,
,,,-00.000045300000,   4.28000,
,,,-00.000045200000,   4.28000,
,,,-00.000045100000,   4.28000,
,,,-00.000045000000,   4.24000,
,,,-00.000044900000,   4.32000,
,,,-00.000044800000,   4.24000,
,,,-00.000044700000,   4.24000,
,,,-00.000044600000,   4.24000,
,,,-00.000044500000,   4.20000,
,,,-00.000044400000,   4.24000,
,,,-00.000044300000,   4.24000,
,,,-00.000044200000,   4.24000,
,,,-00.000044100000,   4.24000,
,,,-00.000044000000,   4.20000,
,,,-00.000043900000,   4.24000,
,,,-00.000043800000,   4.20000,
,,,-00.000043700000,   4.20000,
,,,-00.000043600000,   4.16000,
,,,-00.000043500000,   4.20000,
,,,-00.000043400000,   4.16000,
,,,-00.000043300000,   4.20000,
,,,-00.000043200000,   4.16000,
,,,-00.000043100000,   4.20000,
,,,-00.000043000000,   4.16000,
,,,-00.000042900000,   4.08000,
,,,-00.000042800000,   4.12000,
,,,-00.000042700000,   4.16000,
,,,-00.000042600000,   4.08000,
,,,-00.000042500000,   4.04000,
,,,-00.000042400000,   4.12000,
,,,-00.000042300000,   4.04000,
,,,-00.000042200000,   4.04000,
,,,-00.000042100000,   4.08000,
,,,-00.000042000000,   4.16000,
,,,-00.000041900000,   4.12000,
,,,-00.000041800000,   4.12000,
,,,-00.000041700000,   4.04000,
,,,-00.000041600000,   4.08000,
,,,-00.000041500000,   4.04000,
,,,-00.000041400000,   4.04000,
,,,-00.000041300000,   4.08000,
,,,-00.000041200000,   4.04000,
,,,-00.000041100000,   4.08000,
,,,-00.000041000000,   4.04000,
,,,-00.000040900000,   4.04000,
,,,-00.000040800000,   4.08000,
,,,-00.000040700000,   4.00000,
,,,-00.000040600000,   4.04000,
,,,-00.000040500000,   4.04000,
,,,-00.000040400000,   4.04000,
,,,-00.000040300000,   4.00000,
,,,-00.000040200000,   4.00000,
,,,-00.000040100000,   4.00000,
,,,-00.000040000000,   4.04000,
,,,-00.000039900000,   3.92000,
,,,-00.000039800000,   3.96000,
,,,-00.000039700000,   3.96000,
,,,-00.000039600000,   4.00000,
,,,-00.000039500000,   3.96000,
,,,-00.000039400000,   4.00000,
,,,-00.000039300000,   3.96000,
,,,-00.000039200000,   4.00000,
,,,-00.000039100000,   3.92000,
,,,-00.000039000000,   3.96000,
,,,-00.000038900000,   3.92000,
,,,-00.000038800000,   3.88000,
,,,-00.000038700000,   3.92000,
,,,-00.000038600000,   3.88000,
,,,-00.000038500000,   3.92000,
,,,-00.000038400000,   3.92000,
,,,-00.000038300000,   3.92000,
,,,-00.000038200000,   3.92000,
,,,-00.000038100000,   3.88000,
,,,-00.000038000000,   3.88000,
,,,-00.000037900000,   3.88000,
,,,-00.000037800000,   3.88000,
,,,-00.000037700000,   3.84000,
,,,-00.000037600000,   3.88000,
,,,-00.000037500000,   3.88000,
,,,-00.000037400000,   3.88000,
,,,-00.000037300000,   3.88000,
,,,-00.000037200000,   3.80000,
,,,-00.000037100000,   3.88000,
,,,-00.000037000000,   3.84000,
,,,-00.000036900000,   3.88000,
,,,-00.000036800000,   3.80000,
,,,-00.000036700000,   3.84000,
,,,-00.000036600000,   3.80000,
,,,-00.000036500000,   3.80000,
,,,-00.000036400000,   3.80000,
,,,-00.000036300000,   3.84000,
,,,-00.000036200000,   3.80000,
,,,-00.000036100000,   3.80000,
,,,-00.000036000000,   3.80000,
,,,-00.000035900000,   3.84000,
,,,-00.000035800000,   3.76000,
,,,-00.000035700000,   3.72000,
,,,-00.000035600000,   3.80000,
,,,-00.000035500000,   3.76000,
,,,-00.000035400000,   3.80000,
,,,-00.000035300000,   3.76000,
,,,-00.000035200000,   3.80000,
,,,-00.000035100000,   3.80000,
,,,-00.000035000000,   3.76000,
,,,-00.000034900000,   3.76000,
,,,-00.000034800000,   3.68000,
,,,-00.000034700000,   3.76000,
,,,-00.000034600000,   3.72000,
,,,-00.000034500000,   3.76000,
,,,-00.000034400000,   3.72000,
,,,-00.000034300000,   3.76000,
,,,-00.000034200000,   3.76000,
,,,-00.000034100000,   3.68000,
,,,-00.000034000000,   3.76000,
,,,-00.000033900000,   3.72000,
,,,-00.000033800000,   3.72000,
,,,-00.000033700000,   3.72000,
,,,-00.000033600000,   3.72000,
,,,-00.000033500000,   3.68000,
,,,-00.000033400000,   3.68000,
,,,-00.000033300000,   3.64000,
,,,-00.000033200000,   3.72000,
,,,-00.000033100000,   3.64000,
,,,-00.000033000000,   3.64000,
,,,-00.000032900000,   3.68000,
,,,-00.000032800000,   3.64000,
,,,-00.000032700000,   3.60000,
,,,-00.000032600000,   3.64000,
,,,-00.000032500000,   3.60000,
,,,-00.000032400000,   3.60000,
,,,-00.000032300000,   3.64000,
,,,-00.000032200000,   3.64000,
,,,-00.000032100000,   3.64000,
,,,-00.000032000000,   3.64000,
,,,-00.000031900000,   3.64000,
,,,-00.000031800000,   3.64000,
,,,-00.000031700000,   3.64000,
,,,-00.000031600000,   3.60000,
,,,-00.000031500000,   3.56000,
,,,-00.000031400000,   3.56000,
,,,-00.000031300000,   3.60000,
,,,-00.000031200000,   3.60000,
,,,-00.000031100000,   3.56000,
,,,-00.000031000000,   3.56000,
,,,-00.000030900000,   3.56000,
,,,-00.000030800000,   3.60000,
,,,-00.000030700000,   3.56000,
,,,-00.000030600000,   3.56000,
,,,-00.000030500000,   3.56000,
,,,-00.000030400000,   3.52000,
,,,-00.000030300000,   3.56000,
,,,-00.000030200000,   3.56000,
,,,-00.000030100000,   3.56000,
,,,-00.000030000000,   3.56000,
,,,-00.000029900000,   3.52000,
,,,-00.000029800000,   3.52000,
,,,-00.000029700000,   3.56000,
