-114/Transístores bem feito/ensaio3 - img/F0015CH2.CSV

Record Length,2.500000e+03,,  -0.000330000000,   4.80000,
Sample Interval,1.000000e-06,,  -0.000329000000,   4.84000,
Trigger Point,3.300000000000e+02,,  -0.000328000000,   4.80000,
,,,  -0.000327000000,   4.80000,
,,,  -0.000326000000,   4.84000,
,,,  -0.000325000000,   4.84000,
Source,CH2,,  -0.000324000000,   4.84000,
Vertical Units,V,,  -0.000323000000,   4.84000,
Vertical Scale,1.000000e+00,,  -0.000322000000,   4.80000,
Vertical Offset,-2.000000e+00,,  -0.000321000000,   4.84000,
Horizontal Units,s,,  -0.000320000000,   4.80000,
Horizontal Scale,2.500000e-04,,  -0.000319000000,   4.80000,
Pt Fmt,Y,,  -0.000318000000,   4.84000,
Yzero,0.000000e+00,,  -0.000317000000,   4.84000,
Probe Atten,1.000000e+00,,  -0.000316000000,   4.84000,
Model Number,TBS1072B-EDU,,  -0.000315000000,   4.84000,
Serial Number,C015811,,  -0.000314000000,   4.84000,
Firmware Version,FV:v4.06,,  -0.000313000000,   4.84000,
,,,-00.000312000000,   4.84000,
,,,-00.000311000000,   4.84000,
,,,-00.000310000000,   4.80000,
,,,-00.000309000000,   4.80000,
,,,-00.000308000000,   4.84000,
,,,-00.000307000000,   4.84000,
,,,-00.000306000000,   4.84000,
,,,-00.000305000000,   4.80000,
,,,-00.000304000000,   4.84000,
,,,-00.000303000000,   4.84000,
,,,-00.000302000000,   4.84000,
,,,-00.000301000000,   4.84000,
,,,-00.000300000000,   4.88000,
,,,-00.000299000000,   4.84000,
,,,-00.000298000000,   4.84000,
,,,-00.000297000000,   4.80000,
,,,-00.000296000000,   4.84000,
,,,-00.000295000000,   4.80000,
,,,-00.000294000000,   4.84000,
,,,-00.000293000000,   4.80000,
,,,-00.000292000000,   4.84000,
,,,-00.000291000000,   4.84000,
,,,-00.000290000000,   4.84000,
,,,-00.000289000000,   4.84000,
,,,-00.000288000000,   4.84000,
,,,-00.000287000000,   4.84000,
,,,-00.000286000000,   4.84000,
,,,-00.000285000000,   4.80000,
,,,-00.000284000000,   4.84000,
,,,-00.000283000000,   4.80000,
,,,-00.000282000000,   4.84000,
,,,-00.000281000000,   4.80000,
,,,-00.000280000000,   4.84000,
,,,-00.000279000000,   4.84000,
,,,-00.000278000000,   4.84000,
,,,-00.000277000000,   4.84000,
,,,-00.000276000000,   4.88000,
,,,-00.000275000000,   4.80000,
,,,-00.000274000000,   4.84000,
,,,-00.000273000000,   4.84000,
,,,-00.000272000000,   4.84000,
,,,-00.000271000000,   4.80000,
,,,-00.000270000000,   4.84000,
,,,-00.000269000000,   4.80000,
,,,-00.000268000000,   4.80000,
,,,-00.000267000000,   4.80000,
,,,-00.000266000000,   4.84000,
,,,-00.000265000000,   4.84000,
,,,-00.000264000000,   4.80000,
,,,-00.000263000000,   4.84000,
,,,-00.000262000000,   4.80000,
,,,-00.000261000000,   4.80000,
,,,-00.000260000000,   4.84000,
,,,-00.000259000000,   4.80000,
,,,-00.000258000000,   4.80000,
,,,-00.000257000000,   4.80000,
,,,-00.000256000000,   4.80000,
,,,-00.000255000000,   4.84000,
,,,-00.000254000000,   4.80000,
,,,-00.000253000000,   4.84000,
,,,-00.000252000000,   4.84000,
,,,-00.000251000000,   4.84000,
,,,-00.000250000000,   4.84000,
,,,-00.000249000000,   4.84000,
,,,-00.000248000000,   4.84000,
,,,-00.000247000000,   4.84000,
,,,-00.000246000000,   4.80000,
,,,-00.000245000000,   4.84000,
,,,-00.000244000000,   4.80000,
,,,-00.000243000000,   4.84000,
,,,-00.000242000000,   4.84000,
,,,-00.000241000000,   4.84000,
,,,-00.000240000000,   4.80000,
,,,-00.000239000000,   4.84000,
,,,-00.000238000000,   4.84000,
,,,-00.000237000000,   4.84000,
,,,-00.000236000000,   4.84000,
,,,-00.000235000000,   4.84000,
,,,-00.000234000000,   4.80000,
,,,-00.000233000000,   4.84000,
,,,-00.000232000000,   4.80000,
,,,-00.000231000000,   4.80000,
,,,-00.000230000000,   4.80000,
,,,-00.000229000000,   4.84000,
,,,-00.000228000000,   4.84000,
,,,-00.000227000000,   4.84000,
,,,-00.000226000000,   4.84000,
,,,-00.000225000000,   4.84000,
,,,-00.000224000000,   4.84000,
,,,-00.000223000000,   4.84000,
,,,-00.000222000000,   4.84000,
,,,-00.000221000000,   4.80000,
,,,-00.000220000000,   4.80000,
,,,-00.000219000000,   4.84000,
,,,-00.000218000000,   4.84000,
,,,-00.000217000000,   4.84000,
,,,-00.000216000000,   4.84000,
,,,-00.000215000000,   4.84000,
,,,-00.000214000000,   4.80000,
,,,-00.000213000000,   4.80000,
,,,-00.000212000000,   4.84000,
,,,-00.000211000000,   4.84000,
,,,-00.000210000000,   4.84000,
,,,-00.000209000000,   4.84000,
,,,-00.000208000000,   4.80000,
,,,-00.000207000000,   4.80000,
,,,-00.000206000000,   4.84000,
,,,-00.000205000000,   4.84000,
,,,-00.000204000000,   4.80000,
,,,-00.000203000000,   4.84000,
,,,-00.000202000000,   4.84000,
,,,-00.000201000000,   4.80000,
,,,-00.000200000000,   4.84000,
,,,-00.000199000000,   4.84000,
,,,-00.000198000000,   4.84000,
,,,-00.000197000000,   4.84000,
,,,-00.000196000000,   4.84000,
,,,-00.000195000000,   4.80000,
,,,-00.000194000000,   4.80000,
,,,-00.000193000000,   4.84000,
,,,-00.000192000000,   4.84000,
,,,-00.000191000000,   4.84000,
,,,-00.000190000000,   4.84000,
,,,-00.000189000000,   4.84000,
,,,-00.000188000000,   4.84000,
,,,-00.000187000000,   4.84000,
,,,-00.000186000000,   4.80000,
,,,-00.000185000000,   4.84000,
,,,-00.000184000000,   4.84000,
,,,-00.000183000000,   4.84000,
,,,-00.000182000000,   4.84000,
,,,-00.000181000000,   4.84000,
,,,-00.000180000000,   4.84000,
,,,-00.000179000000,   4.84000,
,,,-00.000178000000,   4.84000,
,,,-00.000177000000,   4.84000,
,,,-00.000176000000,   4.80000,
,,,-00.000175000000,   4.84000,
,,,-00.000174000000,   4.84000,
,,,-00.000173000000,   4.80000,
,,,-00.000172000000,   4.84000,
,,,-00.000171000000,   4.80000,
,,,-00.000170000000,   4.84000,
,,,-00.000169000000,   4.84000,
,,,-00.000168000000,   4.88000,
,,,-00.000167000000,   4.84000,
,,,-00.000166000000,   4.84000,
,,,-00.000165000000,   4.80000,
,,,-00.000164000000,   4.84000,
,,,-00.000163000000,   4.80000,
,,,-00.000162000000,   4.84000,
,,,-00.000161000000,   4.84000,
,,,-00.000160000000,   4.84000,
,,,-00.000159000000,   4.84000,
,,,-00.000158000000,   4.84000,
,,,-00.000157000000,   4.84000,
,,,-00.000156000000,   4.84000,
,,,-00.000155000000,   4.84000,
,,,-00.000154000000,   4.80000,
,,,-00.000153000000,   4.80000,
,,,-00.000152000000,   4.84000,
,,,-00.000151000000,   4.84000,
,,,-00.000150000000,   4.88000,
,,,-00.000149000000,   4.80000,
,,,-00.000148000000,   4.80000,
,,,-00.000147000000,   4.88000,
,,,-00.000146000000,   4.84000,
,,,-00.000145000000,   4.84000,
,,,-00.000144000000,   4.84000,
,,,-00.000143000000,   4.84000,
,,,-00.000142000000,   4.84000,
,,,-00.000141000000,   4.88000,
,,,-00.000140000000,   4.84000,
,,,-00.000139000000,   4.84000,
,,,-00.000138000000,   4.84000,
,,,-00.000137000000,   4.84000,
,,,-00.000136000000,   4.84000,
,,,-00.000135000000,   4.84000,
,,,-00.000134000000,   4.84000,
,,,-00.000133000000,   4.84000,
,,,-00.000132000000,   4.84000,
,,,-00.000131000000,   4.84000,
,,,-00.000130000000,   4.84000,
,,,-00.000129000000,   4.84000,
,,,-00.000128000000,   4.84000,
,,,-00.000127000000,   4.84000,
,,,-00.000126000000,   4.84000,
,,,-00.000125000000,   4.84000,
,,,-00.000124000000,   4.84000,
,,,-00.000123000000,   4.84000,
,,,-00.000122000000,   4.84000,
,,,-00.000121000000,   4.80000,
,,,-00.000120000000,   4.84000,
,,,-00.000119000000,   4.80000,
,,,-00.000118000000,   4.84000,
,,,-00.000117000000,   4.84000,
,,,-00.000116000000,   4.80000,
,,,-00.000115000000,   4.84000,
,,,-00.000114000000,   4.80000,
,,,-00.000113000000,   4.84000,
,,,-00.000112000000,   4.80000,
,,,-00.000111000000,   4.84000,
,,,-00.000110000000,   4.80000,
,,,-00.000109000000,   4.80000,
,,,-00.000108000000,   4.84000,
,,,-00.000107000000,   4.80000,
,,,-00.000106000000,   4.80000,
,,,-00.000105000000,   4.80000,
,,,-00.000104000000,   4.80000,
,,,-00.000103000000,   4.80000,
,,,-00.000102000000,   4.80000,
,,,-00.000101000000,   4.80000,
,,,-00.000100000000,   4.80000,
,,,-00.000099000000,   4.80000,
,,,-00.000098000000,   4.80000,
,,,-00.000097000000,   4.80000,
,,,-00.000096000000,   4.80000,
,,,-00.000095000000,   4.80000,
,,,-00.000094000000,   4.80000,
,,,-00.000093000000,   4.80000,
,,,-00.000092000000,   4.76000,
,,,-00.000091000000,   4.76000,
,,,-00.000090000000,   4.76000,
,,,-00.000089000000,   4.76000,
,,,-00.000088000000,   4.76000,
,,,-00.000087000000,   4.76000,
,,,-00.000086000000,   4.76000,
,,,-00.000085000000,   4.72000,
,,,-00.000084000000,   4.72000,
,,,-00.000083000000,   4.72000,
,,,-00.000082000000,   4.72000,
,,,-00.000081000000,   4.72000,
,,,-00.000080000000,   4.68000,
,,,-00.000079000000,   4.68000,
,,,-00.000078000000,   4.68000,
,,,-00.000077000000,   4.68000,
,,,-00.000076000000,   4.64000,
,,,-00.000075000000,   4.64000,
,,,-00.000074000000,   4.60000,
,,,-00.000073000000,   4.60000,
,,,-00.000072000000,   4.60000,
,,,-00.000071000000,   4.60000,
,,,-00.000070000000,   4.56000,
,,,-00.000069000000,   4.56000,
,,,-00.000068000000,   4.56000,
,,,-00.000067000000,   4.52000,
,,,-00.000066000000,   4.48000,
,,,-00.000065000000,   4.48000,
,,,-00.000064000000,   4.48000,
,,,-00.000063000000,   4.48000,
,,,-00.000062000000,   4.44000,
,,,-00.000061000000,   4.44000,
,,,-00.000060000000,   4.44000,
,,,-00.000059000000,   4.40000,
,,,-00.000058000000,   4.40000,
,,,-00.000057000000,   4.40000,
,,,-00.000056000000,   4.36000,
,,,-00.000055000000,   4.36000,
,,,-00.000054000000,   4.36000,
,,,-00.000053000000,   4.36000,
,,,-00.000052000000,   4.32000,
,,,-00.000051000000,   4.32000,
,,,-00.000050000000,   4.32000,
,,,-00.000049000000,   4.28000,
,,,-00.000048000000,   4.28000,
,,,-00.000047000000,   4.28000,
,,,-00.000046000000,   4.24000,
,,,-00.000045000000,   4.24000,
,,,-00.000044000000,   4.24000,
,,,-00.000043000000,   4.20000,
,,,-00.000042000000,   4.20000,
,,,-00.000041000000,   4.20000,
,,,-00.000040000000,   4.20000,
,,,-00.000039000000,   4.16000,
,,,-00.000038000000,   4.16000,
,,,-00.000037000000,   4.16000,
,,,-00.000036000000,   4.12000,
,,,-00.000035000000,   4.12000,
,,,-00.000034000000,   4.12000,
,,,-00.000033000000,   4.08000,
,,,-00.000032000000,   4.08000,
,,,-00.000031000000,   4.08000,
,,,-00.000030000000,   4.04000,
,,,-00.000029000000,   4.08000,
,,,-00.000028000000,   4.04000,
,,,-00.000027000000,   4.04000,
,,,-00.000026000000,   4.04000,
,,,-00.000025000000,   4.00000,
,,,-00.000024000000,   4.00000,
,,,-00.000023000000,   3.96000,
,,,-00.000022000000,   3.96000,
,,,-00.000021000000,   3.96000,
,,,-00.000020000000,   3.92000,
,,,-00.000019000000,   3.92000,
,,,-00.000018000000,   3.88000,
,,,-00.000017000000,   3.92000,
,,,-00.000016000000,   3.88000,
,,,-00.000015000000,   3.88000,
,,,-00.000014000000,   3.88000,
,,,-00.000013000000,   3.84000,
,,,-00.000012000000,   3.88000,
,,,-00.000011000000,   3.88000,
,,,-00.000010000000,   3.84000,
,,,-00.000009000000,   3.84000,
,,,-00.000008000000,   3.84000,
,,,-00.000007000000,   3.80000,
,,,-00.000006000000,   3.80000,
,,,-00.000005000000,   3.80000,
,,,-00.000004000000,   3.80000,
,,,-00.000003000000,   3.80000,
,,,-00.000002000000,   3.76000,
,,,-00.000001000000,   3.76000,
,,,-00.000000000000,   3.72000,
,,,00.000001000000,   3.72000,
,,,00.000002000000,   3.72000,
,,,00.000003000000,   3.72000,
,,,00.000004000000,   3.68000,
,,,00.000005000000,   3.64000,
,,,00.000006000000,   3.68000,
,,,00.000007000000,   3.64000,
,,,00.000008000000,   3.64000,
,,,00.000009000000,   3.64000,
,,,00.000010000000,   3.60000,
,,,00.000011000000,   3.60000,
,,,00.000012000000,   3.60000,
,,,00.000013000000,   3.60000,
,,,00.000014000000,   3.56000,
,,,00.000015000000,   3.60000,
,,,00.000016000000,   3.56000,
,,,00.000017000000,   3.56000,
,,,00.000018000000,   3.52000,
,,,00.000019000000,   3.52000,
,,,00.000020000000,   3.52000,
,,,00.000021000000,   3.48000,
,,,00.000022000000,   3.48000,
,,,00.000023000000,   3.48000,
,,,00.000024000000,   3.44000,
,,,00.000025000000,   3.44000,
,,,00.000026000000,   3.44000,
,,,00.000027000000,   3.44000,
,,,00.000028000000,   3.44000,
,,,00.000029000000,   3.44000,
,,,00.000030000000,   3.40000,
,,,00.000031000000,   3.40000,
,,,00.000032000000,   3.36000,
,,,00.000033000000,   3.40000,
,,,00.000034000000,   3.36000,
,,,00.000035000000,   3.36000,
,,,00.000036000000,   3.32000,
,,,00.000037000000,   3.32000,
,,,00.000038000000,   3.32000,
,,,00.000039000000,   3.32000,
,,,00.000040000000,   3.28000,
,,,00.000041000000,   3.28000,
,,,00.000042000000,   3.28000,
,,,00.000043000000,   3.24000,
,,,00.000044000000,   3.24000,
,,,00.000045000000,   3.24000,
,,,00.000046000000,   3.24000,
,,,00.000047000000,   3.24000,
,,,00.000048000000,   3.24000,
,,,00.000049000000,   3.20000,
,,,00.000050000000,   3.20000,
,,,00.000051000000,   3.20000,
,,,00.000052000000,   3.20000,
,,,00.000053000000,   3.16000,
,,,00.000054000000,   3.16000,
,,,00.000055000000,   3.16000,
,,,00.000056000000,   3.16000,
,,,00.000057000000,   3.12000,
,,,00.000058000000,   3.12000,
,,,00.000059000000,   3.08000,
,,,00.000060000000,   3.08000,
,,,00.000061000000,   3.08000,
,,,00.000062000000,   3.08000,
,,,00.000063000000,   3.04000,
,,,00.000064000000,   3.04000,
,,,00.000065000000,   3.04000,
,,,00.000066000000,   3.04000,
,,,00.000067000000,   3.04000,
,,,00.000068000000,   3.04000,
,,,00.000069000000,   3.00000,
,,,00.000070000000,   3.00000,
,,,00.000071000000,   3.00000,
,,,00.000072000000,   3.00000,
,,,00.000073000000,   2.96000,
,,,00.000074000000,   2.96000,
,,,00.000075000000,   2.92000,
,,,00.000076000000,   2.96000,
,,,00.000077000000,   2.92000,
,,,00.000078000000,   2.92000,
,,,00.000079000000,   2.92000,
,,,00.000080000000,   2.88000,
,,,00.000081000000,   2.88000,
,,,00.000082000000,   2.88000,
,,,00.000083000000,   2.84000,
,,,00.000084000000,   2.88000,
,,,00.000085000000,   2.84000,
,,,00.000086000000,   2.84000,
,,,00.000087000000,   2.84000,
,,,00.000088000000,   2.80000,
,,,00.000089000000,   2.80000,
,,,00.000090000000,   2.76000,
,,,00.000091000000,   2.76000,
,,,00.000092000000,   2.76000,
,,,00.000093000000,   2.72000,
,,,00.000094000000,   2.72000,
,,,00.000095000000,   2.72000,
,,,00.000096000000,   2.72000,
,,,00.000097000000,   2.72000,
,,,00.000098000000,   2.72000,
,,,00.000099000000,   2.72000,
,,,00.000100000000,   2.68000,
,,,00.000101000000,   2.68000,
,,,00.000102000000,   2.68000,
,,,00.000103000000,   2.64000,
,,,00.000104000000,   2.64000,
,,,00.000105000000,   2.64000,
,,,00.000106000000,   2.64000,
,,,00.000107000000,   2.60000,
,,,00.000108000000,   2.60000,
,,,00.000109000000,   2.60000,
,,,00.000110000000,   2.56000,
,,,00.000111000000,   2.60000,
,,,00.000112000000,   2.56000,
,,,00.000113000000,   2.52000,
,,,00.000114000000,   2.52000,
,,,00.000115000000,   2.52000,
,,,00.000116000000,   2.52000,
,,,00.000117000000,   2.52000,
,,,00.000118000000,   2.48000,
,,,00.000119000000,   2.48000,
,,,00.000120000000,   2.48000,
,,,00.000121000000,   2.48000,
,,,00.000122000000,   2.48000,
,,,00.000123000000,   2.44000,
,,,00.000124000000,   2.44000,
,,,00.000125000000,   2.44000,
,,,00.000126000000,   2.40000,
,,,00.000127000000,   2.40000,
,,,00.000128000000,   2.40000,
,,,00.000129000000,   2.36000,
,,,00.000130000000,   2.32000,
,,,00.000131000000,   2.32000,
,,,00.000132000000,   2.36000,
,,,00.000133000000,   2.36000,
,,,00.000134000000,   2.32000,
,,,00.000135000000,   2.28000,
,,,00.000136000000,   2.28000,
,,,00.000137000000,   2.28000,
,,,00.000138000000,   2.28000,
,,,00.000139000000,   2.28000,
,,,00.000140000000,   2.28000,
,,,00.000141000000,   2.28000,
,,,00.000142000000,   2.24000,
,,,00.000143000000,   2.24000,
,,,00.000144000000,   2.24000,
,,,00.000145000000,   2.20000,
,,,00.000146000000,   2.20000,
,,,00.000147000000,   2.16000,
,,,00.000148000000,   2.20000,
,,,00.000149000000,   2.20000,
,,,00.000150000000,   2.16000,
,,,00.000151000000,   2.12000,
,,,00.000152000000,   2.16000,
,,,00.000153000000,   2.12000,
,,,00.000154000000,   2.12000,
,,,00.000155000000,   2.12000,
,,,00.000156000000,   2.12000,
,,,00.000157000000,   2.08000,
,,,00.000158000000,   2.08000,
,,,00.000159000000,   2.08000,
,,,00.000160000000,   2.04000,
,,,00.000161000000,   2.04000,
,,,00.000162000000,   2.04000,
,,,00.000163000000,   2.04000,
,,,00.000164000000,   2.00000,
,,,00.000165000000,   2.00000,
,,,00.000166000000,   2.00000,
,,,00.000167000000,   2.00000,
,,,00.000168000000,   2.00000,
,,,00.000169000000,   1.96000,
,,,00.000170000000,   1.96000,
,,,00.000171000000,   1.96000,
,,,00.000172000000,   1.92000,
,,,00.000173000000,   1.92000,
,,,00.000174000000,   1.92000,
,,,00.000175000000,   1.88000,
,,,00.000176000000,   1.88000,
,,,00.000177000000,   1.88000,
,,,00.000178000000,   1.84000,
,,,00.000179000000,   1.84000,
,,,00.000180000000,   1.84000,
,,,00.000181000000,   1.80000,
,,,00.000182000000,   1.80000,
,,,00.000183000000,   1.80000,
,,,00.000184000000,   1.80000,
,,,00.000185000000,   1.80000,
,,,00.000186000000,   1.80000,
,,,00.000187000000,   1.76000,
,,,00.000188000000,   1.76000,
,,,00.000189000000,   1.76000,
,,,00.000190000000,   1.72000,
,,,00.000191000000,   1.72000,
,,,00.000192000000,   1.72000,
,,,00.000193000000,   1.72000,
,,,00.000194000000,   1.68000,
,,,00.000195000000,   1.68000,
,,,00.000196000000,   1.64000,
,,,00.000197000000,   1.64000,
,,,00.000198000000,   1.64000,
,,,00.000199000000,   1.64000,
,,,00.000200000000,   1.60000,
,,,00.000201000000,   1.60000,
,,,00.000202000000,   1.64000,
,,,00.000203000000,   1.60000,
,,,00.000204000000,   1.60000,
,,,00.000205000000,   1.60000,
,,,00.000206000000,   1.56000,
,,,00.000207000000,   1.56000,
,,,00.000208000000,   1.56000,
,,,00.000209000000,   1.56000,
,,,00.000210000000,   1.52000,
,,,00.000211000000,   1.52000,
,,,00.000212000000,   1.52000,
,,,00.000213000000,   1.48000,
,,,00.000214000000,   1.48000,
,,,00.000215000000,   1.48000,
,,,00.000216000000,   1.44000,
,,,00.000217000000,   1.44000,
,,,00.000218000000,   1.44000,
,,,00.000219000000,   1.44000,
,,,00.000220000000,   1.40000,
,,,00.000221000000,   1.40000,
,,,00.000222000000,   1.40000,
,,,00.000223000000,   1.40000,
,,,00.000224000000,   1.36000,
,,,00.000225000000,   1.36000,
,,,00.000226000000,   1.36000,
,,,00.000227000000,   1.36000,
,,,00.000228000000,   1.36000,
,,,00.000229000000,   1.32000,
,,,00.000230000000,   1.32000,
,,,00.000231000000,   1.28000,
,,,00.000232000000,   1.32000,
,,,00.000233000000,   1.32000,
,,,00.000234000000,   1.32000,
,,,00.000235000000,   1.28000,
,,,00.000236000000,   1.28000,
,,,00.000237000000,   1.28000,
,,,00.000238000000,   1.28000,
,,,00.000239000000,   1.28000,
,,,00.000240000000,   1.28000,
,,,00.000241000000,   1.28000,
,,,00.000242000000,   1.28000,
,,,00.000243000000,   1.28000,
,,,00.000244000000,   1.28000,
,,,00.000245000000,   1.32000,
,,,00.000246000000,   1.32000,
,,,00.000247000000,   1.32000,
,,,00.000248000000,   1.32000,
,,,00.000249000000,   1.32000,
,,,00.000250000000,   1.32000,
,,,00.000251000000,   1.32000,
,,,00.000252000000,   1.36000,
,,,00.000253000000,   1.36000,
,,,00.000254000000,   1.36000,
,,,00.000255000000,   1.36000,
,,,00.000256000000,   1.36000,
,,,00.000257000000,   1.36000,
,,,00.000258000000,   1.36000,
,,,00.000259000000,   1.36000,
,,,00.000260000000,   1.36000,
,,,00.000261000000,   1.40000,
,,,00.000262000000,   1.40000,
,,,00.000263000000,   1.40000,
,,,00.000264000000,   1.40000,
,,,00.000265000000,   1.44000,
,,,00.000266000000,   1.44000,
,,,00.000267000000,   1.48000,
,,,00.000268000000,   1.44000,
,,,00.000269000000,   1.48000,
,,,00.000270000000,   1.48000,
,,,00.000271000000,   1.52000,
,,,00.000272000000,   1.48000,
,,,00.000273000000,   1.48000,
,,,00.000274000000,   1.48000,
,,,00.000275000000,   1.52000,
,,,00.000276000000,   1.52000,
,,,00.000277000000,   1.48000,
,,,00.000278000000,   1.52000,
,,,00.000279000000,   1.52000,
,,,00.000280000000,   1.52000,
,,,00.000281000000,   1.56000,
,,,00.000282000000,   1.56000,
,,,00.000283000000,   1.56000,
,,,00.000284000000,   1.56000,
,,,00.000285000000,   1.60000,
,,,00.000286000000,   1.60000,
,,,00.000287000000,   1.60000,
,,,00.000288000000,   1.64000,
,,,00.000289000000,   1.64000,
,,,00.000290000000,   1.64000,
,,,00.000291000000,   1.64000,
,,,00.000292000000,   1.68000,
